{
  "window.zoomLevel": -1,
  "window.menuBarVisibility": "default",
  "editor.renderControlCharacters": true,
  "C_Cpp.intelliSenseEngine": "Default",
  "workbench.iconTheme": "material-icon-theme",
  "workbench.colorTheme": "Spacemacs - dark",
  "cSpell.logLevel": "Warning",
  "cSpell.diagnosticLevel": "Information",
  "latex-workshop.latex.autoBuild.cleanAndRetry.enabled": false,
  "latex-workshop.latex.recipes": [
    {
      "name": "pdflatex -> bibtex*2 -> pdflatex*2",
      "tools": [
        "pdflatex",
        
        "bibtex",
        "pdflatex",
        "pdflatex"
      ]
    }
  ],
  "latex-workshop.view.pdf.viewer": "tab",
  "editor.wordWrap": "off",
  "latex-workshop.message.error.show": false,
  "latex-workshop.message.warning.show": false,
  "editor.rulers": [
    100
  ],
  "cSpell.maxNumberOfProblems": 500,
  "cSpell.userWords": [
    "magnetohydrodynamic",
    "multivectors",
    "pseudoscalar"
  ],
  "workbench.colorCustomizations": {
    "editor.selectionBackground": "#ed6d119a",
    "editor.selectionHighlightBackground": "#80ff0165",
    "editorCursor.foreground": "#4de80a",
    "scrollbarSlider.background": "#b2e6172c",
    "scrollbarSlider.hoverBackground": "#bfff0056",
    "scrollbarSlider.activeBackground": "#bfff0056"
  },
  "cSpell.enabledLanguageIds": [
    "asciidoc",
    "c",
    "csharp",
    "css",
    "go",
    "handlebars",
    "html",
    "jade",
    "javascript",
    "javascriptreact",
    "json",
    "latex",
    "less",
    "markdown",
    "php",
    "plaintext",
    "pub",
    "python",
    "restructuredtext",
    "rust",
    "scss",
    "text",
    "typescript",
    "typescriptreact",
    "yml"
  ],
  "workbench.editor.tabSizing": "shrink",
  "editor.quickSuggestionsDelay": 500,
  "editor.suggestFontSize": 12,
  "editor.suggestLineHeight": 12,
  
  "editor.tokenColorCustomizations": {
    //"comments": "#42f91081",
    "strings": "#0befe0fc",
  
  },
"editor.fontSize": 15,
"editor.renderLineHighlight": "gutter",
"editor.selectionHighlight": false,
"editor.occurrencesHighlight": false,
"editor.cursorBlinking": "smooth",
"editor.minimap.maxColumn": 60,
"editor.cursorStyle": "block",
"workbench.activityBar.visible": true,
"editor.snippetSuggestions": "top",
"editor.tabCompletion": true,
"editor.fontFamily": "DejaVu Sans Mono",
"workbench.editor.enablePreview": false,
"editor.minimap.enabled": false,
}
